Aliens/verilog/csv2testbench/AliensBusControl_TB_CAPTURED_async.vcd
$date
	Wed Jan 15 21:07:26 2020
$end
$version
	Icarus Verilog
$end
$timescale
	1ps
$end
$scope module AliensBusControl_TB_CAPTURED_async $end
$var wire 1 ! WORK $end
$var wire 1 " VRAMCS $end
$var wire 1 # PROG $end
$var wire 1 $ OBJCS $end
$var wire 1 % IOCS $end
$var wire 1 & DTACgen $end
$var wire 1 ' CRAMCSgen $end
$var wire 1 ( BANK $end
$var reg 16 ) ADDR [15:0] $end
$var reg 1 * AS $end
$var reg 1 + BK4 $end
$var reg 1 , CKE $end
$var reg 1 - CKQ $end
$var reg 1 . CRAMCS $end
$var reg 1 / DTAC2 $end
$var reg 1 0 INIT $end
$var reg 1 1 NCLK12 $end
$var reg 1 2 RMRD $end
$var reg 1 3 RWb $end
$var reg 1 4 SYSCLK $end
$var reg 1 5 WOCO $end
$scope module ABC $end
$var wire 13 6 ADRF3 [12:0] $end
$var wire 1 * AS $end
$var wire 1 7 ASb $end
$var wire 1 + BK4 $end
$var wire 1 8 C19_3 $end
$var wire 1 9 C19_6 $end
$var wire 1 : C20_3 $end
$var wire 1 ; C20_6 $end
$var wire 1 < CK12_CE $end
$var wire 1 , CKE $end
$var wire 1 - CKQ $end
$var wire 1 - CKQ_CE $end
$var wire 1 0 INIT $end
$var wire 1 1 NCK12_CE $end
$var wire 1 2 RMRD $end
$var wire 1 4 SYSCLK $end
$var wire 1 5 WOCO $end
$var wire 1 ! WORK $end
$var wire 1 " VRAMCS $end
$var wire 1 # PROG $end
$var wire 1 $ OBJCS $end
$var wire 1 % IOCS $end
$var wire 1 & DTAC $end
$var wire 1 = D21_19 $end
$var wire 1 > D21_17 $end
$var wire 1 ? D21_16 $end
$var wire 1 @ D21_15 $end
$var wire 1 A D21_12 $end
$var wire 1 B D20_12 $end
$var wire 1 C D18_9 $end
$var wire 1 D D18_5 $end
$var wire 1 ' CRAMCS $end
$var wire 1 ( BANK $end
$scope module D18_1 $end
$var wire 1 - clk $end
$var wire 1 7 ps $end
$var wire 1 > d $end
$var reg 1 D q $end
$upscope $end
$scope module D18_2 $end
$var wire 1 < clk $end
$var wire 1 8 d $end
$var wire 1 7 ps $end
$var reg 1 C q $end
$upscope $end
$scope module D20 $end
$var wire 1 : C20_3 $end
$var wire 1 ; C20_6 $end
$var wire 1 ' CRAMCS $end
$var wire 1 D D18_5 $end
$var wire 1 B D20_12 $end
$var wire 1 % IOCS $end
$var wire 1 E MA7 $end
$var wire 1 F MA8 $end
$var wire 1 G MA9 $end
$var wire 1 H MAA $end
$var wire 1 $ OBJCS $end
$var wire 1 I R14 $end
$var wire 1 J R15 $end
$var wire 1 2 RMRD $end
$var wire 1 " VRAMCS $end
$var wire 1 > D21_17 $end
$var wire 1 ? D21_16 $end
$var wire 1 @ D21_15 $end
$var wire 1 A D21_12 $end
$upscope $end
$scope module D21 $end
$var wire 1 * AS $end
$var wire 1 ( BANK $end
$var wire 1 + BK4 $end
$var wire 1 A D21_12 $end
$var wire 1 @ D21_15 $end
$var wire 1 ? D21_16 $end
$var wire 1 > D21_17 $end
$var wire 1 = D21_19 $end
$var wire 1 0 INIT $end
$var wire 1 K MAA $end
$var wire 1 L MAB $end
$var wire 1 M MAC $end
$var wire 1 N MAD $end
$var wire 1 O MAE $end
$var wire 1 P MAF $end
$var wire 1 # PROG $end
$var wire 1 5 WOCO $end
$var wire 1 ! WORK $end
$upscope $end
$scope module F11_1 $end
$var wire 1 1 clk $end
$var wire 1 9 d $end
$var wire 1 7 ps $end
$var reg 1 & q $end
$upscope $end
$upscope $end
$upscope $end
$enddefinitions $end
#0
$dumpvars
1P
0O
1N
0M
0L
0K
xJ
xI
0H
0G
0F
0E
xD
xC
xB
xA
x@
x?
x>
x=
0<
x;
x:
x9
x8
x7
b1010000000100 6
15
14
13
02
11
10
1/
1.
1-
1,
0+
0*
b1010000000100111 )
x(
x'
x&
x%
x$
x#
x"
x!
$end
#7000
1>
1A
1(
0=
1!
1I
0#
1?
1@
1;
0:
17
#10000
0/
04
#14000
1$
1J
1'
08
1%
#17000
1"
1B
#20000
14
#30000
04
#40000
1<
14
01
#50000
0C
04
#57000
09
#60000
14
#70000
04
0-
#80000
0<
14
11
#90000
0&
04
#100000
14
#110000
04
#120000
1<
14
01
#130000
04
#140000
14
#150000
04
#160000
0<
14
11
0,
#170000
04
#180000
14
#190000
04
#200000
1<
14
01
1*
#207000
1=
1#
07
#210000
04
1/
#214000
18
#217000
1D
1C
1&
#220000
14
#224000
19
#230000
b1010000000101 6
04
b1010000000101000 )
#237000
1:
#240000
0<
14
11
1-
#251250
04
#262500
14
#273750
04
#280000
0*
#285000
1<
14
01
#287000
0=
0#
17
#294000
08
#296250
04
#307500
14
#318750
04
#320000
1,
#330000
0<
14
11
#340000
04
#350000
14
#360000
04
#370000
1<
14
01
#380000
0C
04
#387000
09
#390000
14
#400000
04
0-
#410000
0<
14
11
#420000
0&
04
0/
#430000
14
#440000
04
#450000
1<
14
01
#460000
04
#470000
14
#480000
04
0,
#490000
0<
14
11
#500000
04
#510000
14
#520000
04
#530000
1<
14
01
#540000
04
#550000
14
#560000
04
#570000
0<
14
11
1-
#580000
04
#590000
14
#600000
04
#610000
1<
14
01
1*
#617000
1=
1#
07
#620000
04
1/
#624000
18
#627000
1C
1&
#630000
14
#634000
19
#640000
04
#650000
0<
14
11
1,
#661250
04
#672500
14
#683750
04
#695000
1<
14
01
#706250
04
#717500
14
#728750
04
#730000
0-
#740000
0<
14
11
#750000
04
#760000
14
#770000
04
#780000
1<
14
01
#790000
04
#800000
14
#810000
04
0,
#820000
0<
14
11
#830000
04
#840000
14
#850000
04
#860000
1<
14
01
#870000
04
#880000
14
#890000
04
1-
#900000
0<
14
11
#910000
04
#920000
14
#930000
04
#940000
1<
14
01
#950000
04
#960000
0N
1M
1L
b1001100000001 6
14
b1001100000001000 )
#967000
0;
#970000
0P
1G
1E
b1101010001 6
04
b1101010001011 )
#980000
0<
14
11
1,
#990000
04
#1000000
14
#1010000
04
#1020000
1<
14
01
#1030000
04
#1040000
14
#1050000
04
#1060000
0<
14
11
0-
#1070000
04
#1080000
14
#1090000
04
#1100000
1<
14
01
0*
#1107000
0=
0!
17
#1110000
04
#1114000
08
#1120000
14
#1130000
04
#1140000
0<
14
11
0,
#1151250
04
#1162500
14
#1173750
04
#1185000
1<
14
01
#1195000
0C
#1196250
04
#1202000
09
#1207500
14
#1218750
04
#1220000
1-
#1230000
0<
14
11
0/
#1240000
0&
04
#1250000
14
#1260000
04
#1270000
1<
14
01
#1280000
04
#1290000
14
#1300000
04
1,
#1310000
0<
14
11
#1320000
04
#1330000
14
#1340000
04
#1350000
1<
14
01
#1360000
04
#1370000
14
#1380000
04
0-
#1390000
0<
14
11
#1400000
04
#1410000
14
#1420000
04
1*
#1427000
1=
1!
07
#1430000
1<
14
01
#1434000
18
#1437000
1C
1&
#1440000
04
1/
#1444000
19
#1450000
1N
0M
0L
b10001010001 6
14
b10001010001011 )
#1460000
1P
0G
0E
b1010000000101 6
04
b1010000000101001 )
#1467000
1;
#1470000
0<
14
11
0,
#1480000
04
#1490000
14
#1500000
04
#1510000
1<
14
01
0*
#1517000
0=
0#
17
#1520000
04
#1524000
08
#1530000
14
#1540000
04
#1550000
0<
14
11
1-
#1561250
04
#1572500
14
#1583750
04
#1595000
1<
14
01
#1605000
0C
#1606250
04
#1612000
09
#1617500
14
#1628750
04
#1630000
1,
#1640000
0<
14
11
0/
#1650000
0&
04
#1660000
14
#1670000
04
#1680000
1<
14
01
#1690000
04
#1700000
14
#1710000
04
0-
#1720000
0<
14
11
#1730000
04
#1740000
14
#1750000
04
#1760000
1<
14
01
#1770000
04
#1780000
14
#1790000
04
0,
#1800000
0<
14
11
#1810000
04
#1820000
14
#1830000
04
1*
#1837000
1=
1#
07
#1840000
1<
14
01
#1844000
18
#1847000
1C
1&
#1850000
04
1/
#1854000
19
#1860000
14
#1870000
04
1-
b1010000000101010 )
#1880000
0<
14
11
#1890000
04
#1900000
14
#1910000
04
#1920000
1<
14
01
0*
#1927000
0=
0#
17
#1930000
04
#1934000
08
#1940000
14
#1950000
04
#1960000
0<
14
11
1,
#1970000
04
#1980000
14
#1990000
04
#2000000
1<
14
01
#2010000
0C
04
#2017000
09
#2020000
14
#2030000
04
#2040000
0<
14
11
0-
#2050000
0&
0/
#2051250
04
#2062500
14
#2073750
04
#2085000
1<
14
01
#2096250
04
#2107500
14
#2118750
04
#2120000
0,
#2130000
0<
14
11
#2140000
04
#2150000
14
#2160000
04
#2170000
1<
14
01
#2180000
04
#2190000
14
#2200000
04
1-
#2210000
0<
14
11
#2220000
04
#2230000
14
#2240000
04
1*
#2247000
1=
1#
07
#2250000
1<
14
01
#2254000
18
#2257000
1C
1&
#2260000
04
1/
#2264000
19
#2270000
14
#2280000
04
1,
#2290000
0<
14
11
#2300000
04
#2310000
14
#2320000
04
#2330000
1<
14
01
#2340000
04
#2350000
14
#2360000
04
#2370000
0<
14
11
0-
#2380000
04
#2390000
14
#2400000
04
#2410000
1<
14
01
#2420000
04
#2430000
14
#2440000
04
#2450000
0<
14
11
0,
#2461250
04
#2472500
14
#2483750
04
#2495000
1<
14
01
#2506250
04
#2517500
14
#2520000
b1010000000101110 )
#2528750
04
#2530000
b1010000000101111 )
1-
#2540000
0<
14
11
#2550000
04
#2560000
14
#2570000
04
0*
#2577000
0=
0#
17
#2580000
1<
14
01
#2584000
08
#2590000
04
#2600000
14
#2610000
04
1,
#2620000
0<
14
11
#2630000
04
#2640000
14
#2650000
04
#2660000
1<
14
01
#2670000
0C
04
#2677000
09
#2680000
14
#2690000
04
0-
#2700000
0<
14
11
#2710000
0&
04
0/
#2720000
14
#2730000
04
#2740000
1<
14
01
#2750000
04
#2760000
14
#2770000
04
0,
#2780000
0<
14
11
#2790000
04
#2800000
14
#2810000
04
#2820000
1<
14
01
#2830000
04
#2840000
14
#2850000
04
#2860000
0<
14
11
1-
#2870000
04
#2880000
14
#2890000
04
#2900000
1<
14
01
1*
#2907000
1=
1#
07
#2910000
04
1/
#2914000
18
#2917000
1C
1&
#2920000
14
#2924000
19
#2930000
b1010000000100 6
04
b1010000000100000 )
#2937000
0:
#2940000
0<
b1010000000110 6
14
11
b1010000000110000 )
1,
#2947000
1:
#2951250
04
#2962500
14
#2973750
04
#2980000
0*
#2985000
1<
14
01
#2987000
0=
0#
17
#2994000
08
#2996250
04
#3007500
14
#3018750
04
#3020000
0-
#3030000
0<
14
11
#3040000
04
#3050000
14
#3060000
04
#3070000
1<
14
01
#3080000
0C
04
#3087000
09
#3090000
14
#3100000
04
0,
#3110000
0<
14
11
0/
#3120000
0&
04
#3130000
14
#3140000
04
#3150000
1<
14
01
#3160000
04
#3170000
14
#3180000
04
1-
#3190000
0<
14
11
#3200000
04
#3210000
14
#3220000
04
#3230000
1<
14
01
#3240000
04
#3250000
14
#3260000
04
#3270000
0<
14
11
1,
#3280000
04
#3290000
14
#3300000
04
#3310000
1<
14
01
1*
#3317000
1=
1#
07
#3320000
04
1/
#3324000
18
#3327000
1C
1&
#3330000
14
#3334000
19
#3340000
04
b1010000000110001 )
#3350000
0<
14
11
0-
#3360000
04
#3370000
14
#3380000
04
#3390000
1<
14
01
0*
#3397000
0=
0#
17
#3400000
04
#3404000
08
#3410000
14
#3420000
04
#3430000
0<
14
11
0,
#3441250
04
#3452500
14
#3463750
04
#3475000
1<
14
01
#3485000
0C
#3486250
04
#3492000
09
#3497500
14
#3508750
04
#3510000
1-
#3520000
0<
14
11
0/
#3530000
0&
04
#3540000
14
#3550000
04
#3560000
1<
14
01
#3570000
04
#3580000
14
#3590000
04
1,
#3600000
0<
14
11
#3610000
04
#3620000
14
#3630000
04
#3640000
1<
14
01
#3650000
04
#3660000
14
#3670000
04
0-
#3680000
0<
14
11
#3690000
04
#3700000
14
#3710000
04
#3720000
1<
14
01
1*
#3727000
1=
1#
07
#3730000
04
1/
#3734000
18
#3737000
1C
1&
#3740000
14
#3744000
19
#3750000
04
#3760000
0<
14
11
0,
#3770000
04
#3780000
14
#3790000
04
#3800000
1<
14
01
#3810000
04
#3820000
14
#3830000
04
#3840000
0<
14
11
1-
#3851250
04
#3862500
14
#3873750
04
#3885000
1<
14
01
#3896250
04
#3907500
14
#3918750
04
#3920000
1,
#3930000
0<
14
11
#3940000
04
#3950000
14
#3960000
04
#3970000
1<
14
01
#3980000
04
#3990000
14
#4000000
04
0-
#4010000
0<
14
11
#4020000
04
#4030000
14
#4040000
04
#4050000
1<
14
01
#4060000
04
#4070000
1L
b1010100000010 6
14
b1010100000010001 )
#4077000
0;
#4080000
0P
1E
b10100011011 6
04
b10100011011011 )
0,
#4087000
1;
#4090000
0<
14
11
#4100000
04
#4110000
14
#4120000
04
#4130000
1<
14
01
#4140000
04
#4150000
14
#4160000
04
#4170000
0<
14
11
1-
#4180000
04
#4190000
14
#4200000
04
#4210000
1<
14
01
#4220000
04
#4230000
14
#4240000
04
#4250000
0<
14
11
1,
#4261250
04
#4272500
14
#4283750
04
#4295000
1<
14
01
#4306250
04
#4317500
14
#4328750
04
#4330000
0-
#4340000
0<
14
11
#4350000
04
#4360000
14
#4370000
04
#4380000
1<
14
01
#4390000
04
#4400000
0L
0E
b10000000010 6
14
b10000000010010 )
#4407000
0;
#4410000
1P
b1010000000110 6
04
b1010000000110010 )
0,
#4417000
1;
#4420000
0<
14
11
#4430000
04
#4440000
14
#4450000
04
0*
#4457000
0=
0#
17
#4460000
1<
14
01
#4464000
08
#4470000
04
#4480000
14
#4490000
04
1-
#4500000
0<
14
11
#4510000
04
#4520000
14
#4530000
04
#4540000
1<
14
01
#4550000
0C
04
#4557000
09
#4560000
14
#4570000
04
#4580000
0<
14
11
1,
#4590000
0&
04
0/
#4600000
14
#4610000
04
#4620000
1<
14
01
#4630000
04
#4640000
14
#4650000
04
#4660000
0<
14
11
0-
#4670000
04
#4680000
14
#4690000
04
#4700000
1<
14
01
#4710000
04
#4720000
14
#4730000
04
#4740000
0<
14
11
0,
#4751250
04
#4762500
14
#4773750
04
#4780000
1*
#4785000
1<
14
01
#4787000
1=
1#
07
#4790000
1/
#4794000
18
#4796250
04
#4797000
1C
1&
#4804000
19
#4807500
14
#4818750
04
#4820000
1-
b1010000000110011 )
#4830000
0<
14
11
#4840000
04
#4850000
14
#4860000
04
0*
#4867000
0=
0#
17
#4870000
1<
14
01
#4874000
08
#4880000
04
#4890000
14
#4900000
04
1,
#4910000
0<
14
11
#4920000
04
#4930000
14
#4940000
04
#4950000
1<
14
01
#4960000
0C
04
#4967000
09
#4970000
14
#4980000
04
0-
#4990000
0<
14
11
#5000000
0&
04
0/
#5010000
14
#5020000
04
#5030000
1<
14
01
#5040000
04
#5050000
14
#5060000
04
0,
#5070000
0<
14
11
#5080000
04
#5090000
14
#5100000
04
#5110000
1<
14
01
#5120000
04
#5130000
14
#5140000
04
#5150000
0<
14
11
1-
#5160000
04
#5170000
14
#5180000
04
#5190000
1<
14
01
1*
#5197000
1=
1#
07
#5200000
04
1/
#5204000
18
#5207000
1C
1&
#5210000
14
#5214000
19
#5220000
04
b1010000000110000 )
#5230000
0<
14
11
b1010000000110100 )
1,
#5241250
04
#5252500
14
#5263750
04
#5270000
0*
#5275000
1<
14
01
#5277000
0=
0#
17
#5284000
08
#5286250
04
#5297500
14
#5308750
04
#5310000
0-
#5320000
0<
14
11
#5330000
04
#5340000
14
#5350000
04
#5360000
1<
14
01
#5370000
0C
04
#5377000
09
#5380000
14
#5390000
04
0,
#5400000
0<
14
11
#5410000
0&
04
0/
#5420000
14
#5430000
04
#5440000
1<
14
01
#5450000
04
#5460000
14
#5470000
04
1-
#5480000
0<
14
11
#5490000
04
#5500000
14
#5510000
04
#5520000
1<
14
01
#5530000
04
#5540000
14
#5550000
04
#5560000
0<
14
11
1,
#5570000
04
#5580000
14
#5590000
04
#5600000
1<
14
01
1*
#5607000
1=
1#
07
#5610000
04
1/
#5614000
18
#5617000
1C
1&
#5620000
14
#5624000
19
#5630000
04
#5640000
0<
14
11
0-
#5650000
04
#5660000
14
#5670000
04
#5680000
1<
14
01
#5690000
04
#5700000
14
#5710000
04
#5720000
0<
14
11
0,
#5731250
04
#5742500
14
#5753750
04
#5765000
1<
14
01
#5776250
04
#5787500
14
#5798750
04
#5800000
1-
#5810000
0<
14
11
#5820000
04
#5830000
14
#5840000
04
#5850000
1<
14
01
#5860000
04
#5870000
14
#5880000
04
1,
#5890000
0<
14
11
#5900000
04
#5910000
14
#5920000
04
#5930000
1<
14
01
#5940000
04
#5950000
0N
1M
1L
b1001100000110 6
14
b1001100000110100 )
#5960000
0P
1G
1E
b1101010001 6
04
b1101010001111 )
0-
#5967000
0;
#5970000
0<
14
11
#5980000
04
#5990000
14
#6000000
04
#6010000
1<
14
01
#6020000
04
#6030000
14
#6040000
04
#6050000
0<
14
11
0,
#6060000
04
#6070000
14
#6080000
04
#6090000
1<
14
01
0*
#6097000
0=
0!
17
#6100000
04
#6104000
08
#6110000
14
#6120000
04
#6130000
0<
14
11
1-
#6141250
04
#6152500
14
#6160000
1K
1H
b1111010001 6
b1111010001111 )
#6163750
04
#6170000
0K
0H
b1101010001 6
b1101010001111 )
#6175000
1<
14
01
#6185000
0C
#6186250
04
#6192000
09
#6197500
14
#6208750
04
#6210000
1,
#6220000
0<
14
11
0/
#6230000
0&
04
#6240000
14
#6250000
04
#6260000
1<
14
01
#6270000
04
#6280000
14
#6290000
04
0-
#6300000
0<
14
11
#6310000
04
#6320000
14
#6330000
04
#6340000
1<
14
01
#6350000
04
#6360000
14
#6370000
04
0,
#6380000
0<
14
11
#6390000
04
#6400000
14
#6410000
04
1*
#6417000
1=
1!
07
#6420000
1<
14
01
#6424000
18
#6427000
1C
1&
#6430000
04
1/
#6434000
19
#6440000
1N
0M
0L
b10001010001 6
14
b10001010001111 )
#6450000
1P
0G
0E
b1010000000110 6
04
b1010000000110101 )
#6457000
1;
#6460000
0<
14
11
1-
#6470000
04
#6480000
14
#6490000
04
#6500000
1<
14
01
0*
#6507000
0=
0#
17
#6510000
04
#6514000
08
#6520000
14
#6530000
04
#6540000
0<
14
11
1,
#6550000
04
#6560000
14
#6570000
04
#6580000
1<
14
01
#6590000
0C
04
#6597000
09
#6600000
14
#6610000
04
#6620000
0<
14
11
0-
#6630000
0&
0/
#6631250
04
#6642500
14
#6653750
04
#6665000
1<
14
01
#6676250
04
#6687500
14
#6698750
04
#6700000
0,
#6710000
0<
14
11
#6720000
04
#6730000
14
#6740000
04
#6750000
1<
14
01
#6760000
04
#6770000
14
#6780000
04
1-
#6790000
0<
14
11
#6800000
04
#6810000
14
#6820000
04
1*
#6827000
1=
1#
07
#6830000
1<
14
01
#6834000
18
#6837000
1C
1&
#6840000
04
1/
#6844000
19
#6850000
14
#6860000
04
1,
b1010000000110110 )
#6870000
0<
14
11
#6880000
04
#6890000
14
#6900000
04
#6910000
1<
14
01
0*
#6917000
0=
0#
17
#6920000
04
#6924000
08
#6930000
14
#6940000
04
#6950000
0<
14
11
0-
#6960000
04
#6970000
14
#6980000
04
#6990000
1<
14
01
#7000000
0C
04
#7007000
09
#7010000
14
#7020000
04
#7030000
0<
14
11
0,
#7040000
0&
04
0/
#7050000
14
#7060000
04
#7070000
1<
14
01
#7080000
04
#7090000
14
#7100000
04
#7110000
0<
14
11
1-
#7121250
04
#7132500
14
#7143750
04
#7155000
1<
14
01
#7166250
04
#7177500
14
#7188750
04
#7190000
1,
#7200000
0<
14
11
#7210000
04
#7220000
14
#7230000
04
1*
#7237000
1=
1#
07
#7240000
1<
14
01
#7244000
18
#7247000
1C
1&
#7250000
04
1/
#7254000
19
#7260000
14
#7270000
04
0-
#7280000
0<
14
11
#7290000
04
#7300000
14
#7310000
04
#7320000
1<
14
01
#7330000
04
#7340000
14
#7350000
04
0,
b1010000000110111 )
#7360000
0<
14
11
#7370000
04
#7380000
14
#7390000
04
#7400000
1<
14
01
0*
#7407000
0=
0#
17
#7410000
04
#7414000
08
#7420000
14
#7430000
04
#7440000
0<
14
11
1-
#7450000
04
#7460000
14
#7470000
04
#7480000
1<
14
01
#7490000
0C
04
#7497000
09
#7500000
14
#7510000
04
#7520000
0<
14
11
1,
#7530000
0&
0/
#7531250
04
#7542500
14
#7553750
04
#7565000
1<
14
01
#7576250
04
#7587500
14
#7598750
04
#7600000
0-
#7610000
0<
14
11
#7620000
04
#7630000
14
#7640000
04
#7650000
1<
14
01
#7660000
04
#7670000
14
#7680000
04
0,
#7690000
0<
14
11
#7700000
04
#7710000
14
#7720000
04
1*
#7727000
1=
1#
07
#7730000
1<
14
01
#7734000
18
#7737000
1C
1&
#7740000
04
1/
#7744000
19
#7750000
14
b1010000000110000 )
#7760000
b1010000000111 6
04
b1010000000111000 )
1-
#7770000
0<
14
11
#7780000
04
#7790000
14
#7800000
04
#7810000
1<
14
01
0*
#7817000
0=
0#
17
#7820000
04
#7824000
08
#7830000
14
#7840000
04
#7850000
0<
14
11
1,
#7860000
04
#7870000
14
#7880000
04
#7890000
1<
14
01
#7900000
0C
04
#7907000
09
#7910000
14
#7920000
04
#7930000
0<
14
11
0-
#7940000
0&
04
0/
#7950000
14
#7960000
04
#7970000
1<
14
01
#7980000
04
#7990000
14
#8000000
04
#8010000
0<
14
11
0,
#8021250
04
#8032500
14
#8043750
04
#8055000
1<
14
01
#8066250
04
#8077500
14
#8088750
04
#8090000
1-
#8100000
0<
14
11
#8110000
04
#8120000
14
#8130000
04
1*
#8137000
1=
1#
07
#8140000
1<
14
01
1/
#8144000
18
#8147000
1C
1&
#8150000
04
#8154000
19
#8160000
14
#8170000
04
1,
b1010000000111001 )
#8180000
0<
14
11
#8190000
04
#8200000
14
#8210000
04
0*
#8217000
0=
0#
17
#8220000
1<
14
01
#8224000
08
#8230000
04
#8240000
14
#8250000
04
0-
#8260000
0<
14
11
#8270000
04
#8280000
14
#8290000
04
#8300000
1<
14
01
#8310000
0C
04
#8317000
09
#8320000
14
#8330000
04
#8340000
0<
14
11
0,
#8350000
0&
04
0/
#8360000
14
#8370000
04
#8380000
1<
14
01
#8390000
04
#8400000
14
#8410000
04
#8420000
0<
14
11
1-
#8430000
04
#8440000
14
#8450000
04
#8460000
1<
14
01
#8470000
04
#8480000
14
#8490000
04
#8500000
0<
14
11
1,
#8511250
04
#8522500
14
#8533750
04
#8540000
1*
#8545000
1<
14
01
#8547000
1=
1#
07
#8550000
1/
#8554000
18
#8556250
04
#8557000
1C
1&
#8564000
19
#8567500
14
#8578750
04
#8580000
0-
#8590000
0<
14
11
#8600000
04
#8610000
14
#8620000
04
#8630000
1<
14
01
#8640000
04
#8650000
14
#8660000
04
0,
#8670000
0<
14
11
#8680000
04
#8690000
14
#8700000
04
#8710000
1<
14
01
#8720000
04
#8730000
14
#8740000
04
#8750000
0<
14
11
1-
#8760000
04
#8770000
14
#8780000
04
#8790000
1<
14
01
#8800000
04
#8810000
14
#8820000
04
#8830000
0<
14
11
1,
#8840000
04
#8850000
14
#8860000
04
#8870000
1<
14
01
#8880000
04
#8890000
14
#8900000
0P
0N
1M
1L
1G
1E
b1101010001 6
04
b1101010001111 )
#8907000
0;
#8910000
0<
14
11
0-
#8920000
04
#8930000
14
#8940000
04
#8950000
1<
14
01
#8960000
04
#8970000
14
#8980000
04
#8990000
0<
14
11
0,
#9001250
04
#9012500
14
#9023750
04
#9035000
1<
14
01
#9046250
04
#9050000
03
#9057500
14
#9068750
04
#9070000
1-
#9080000
0<
14
11
#9090000
04
#9100000
14
#9110000
04
0*
#9117000
0=
0!
17
#9120000
1<
14
01
#9124000
08
#9130000
04
#9140000
14
#9150000
04
1,
#9160000
0<
14
11
#9170000
04
#9180000
14
#9190000
04
#9200000
1<
14
01
#9210000
0C
04
#9217000
09
#9220000
14
#9230000
04
0-
#9240000
0<
14
11
#9250000
0&
04
0/
#9260000
14
#9270000
04
#9280000
1<
14
01
#9290000
04
#9300000
14
#9310000
04
#9320000
0<
14
11
0,
#9330000
04
#9340000
14
#9350000
04
#9360000
1<
14
01
#9370000
04
#9380000
14
#9390000
04
#9400000
0<
14
11
1-
#9411250
04
#9422500
14
#9433750
04
#9440000
1*
#9445000
1<
14
01
#9447000
1=
1!
07
#9450000
1/
#9454000
18
#9456250
04
#9457000
1C
1&
#9460000
13
#9464000
19
#9467500
14
#9470000
1P
1N
0M
0L
0G
0E
b1010000000111 6
b1010000000111010 )
#9477000
1;
#9478750
04
#9480000
1,
#9490000
0<
14
11
#9500000
04
#9510000
14
#9520000
04
0*
#9527000
0=
0#
17
#9530000
1<
14
01
#9534000
08
#9540000
04
#9550000
14
#9560000
04
0-
#9570000
0<
14
11
#9580000
04
#9590000
14
#9600000
04
#9610000
1<
14
01
#9620000
0C
04
#9627000
09
#9630000
14
#9640000
04
0,
#9650000
0<
14
11
#9660000
0&
04
0/
#9670000
14
#9680000
04
#9690000
1<
14
01
#9700000
04
#9710000
14
#9720000
04
#9730000
0<
14
11
1-
#9740000
04
#9750000
14
#9760000
04
#9770000
1<
14
01
#9780000
04
#9790000
14
#9800000
04
#9810000
0<
14
11
1,
#9821250
04
#9832500
14
#9843750
04
#9850000
1*
#9855000
1<
14
01
#9857000
1=
1#
07
#9860000
1/
#9864000
18
#9866250
04
#9867000
1C
1&
#9874000
19
#9877500
14
#9880000
b1010000000111011 )
#9888750
04
#9890000
0-
#9900000
0<
14
11
#9910000
04
#9920000
14
#9930000
04
0*
#9937000
0=
0#
17
#9940000
1<
14
01
#9944000
08
#9950000
04
#9960000
14
#9970000
04
0,
#9980000
0<
14
11
#9990000
04
#10000000
14
#10010000
04
#10020000
1<
14
01
#10030000
0C
04
#10037000
09
#10040000
14
#10050000
04
1-
#10060000
0<
14
11
0/
#10070000
0&
04
#10080000
14
#10090000
04
#10100000
1<
14
01
#10110000
04
#10120000
14
#10130000
04
1,
#10140000
0<
14
11
#10150000
04
#10160000
14
#10170000
04
#10180000
1<
14
01
#10190000
04
#10200000
14
#10210000
04
#10220000
0<
14
11
0-
#10230000
04
#10240000
14
#10250000
04
#10260000
1<
14
01
1*
#10267000
1=
1#
07
#10270000
04
1/
#10274000
18
#10277000
1C
1&
#10280000
14
#10284000
19
#10290000
04
b1010000000111100 )
#10300000
0<
14
11
0,
#10311250
04
#10322500
14
#10333750
04
#10340000
0*
#10345000
1<
14
01
#10347000
0=
0#
17
#10354000
08
#10356250
04
#10367500
14
#10378750
04
#10380000
1-
#10390000
0<
14
11
#10400000
04
#10410000
14
#10420000
04
#10430000
1<
14
01
#10440000
0C
04
#10447000
09
#10450000
14
#10460000
04
1,
#10470000
0<
14
11
0/
#10480000
0&
04
#10490000
14
#10500000
04
#10510000
1<
14
01
#10520000
04
#10530000
14
#10540000
04
0-
#10550000
0<
14
11
#10560000
04
#10570000
14
#10580000
04
#10590000
1<
14
01
#10600000
04
#10610000
14
#10620000
04
0,
#10630000
0<
14
11
#10640000
04
#10650000
14
#10660000
04
1*
#10667000
1=
1#
07
#10670000
1<
14
01
#10674000
18
#10677000
1C
1&
#10680000
04
1/
#10684000
19
#10690000
14
#10700000
04
#10710000
0<
14
11
1-
#10720000
04
#10730000
14
#10740000
04
#10750000
1<
14
01
#10760000
04
#10770000
14
#10780000
04
#10790000
0<
14
11
1,
#10801250
04
#10812500
14
#10823750
04
#10835000
1<
14
01
#10846250
04
#10857500
14
#10868750
04
#10870000
0-
#10880000
0<
14
11
#10890000
04
#10900000
14
#10910000
04
#10920000
1<
14
01
#10930000
04
#10940000
14
#10950000
04
0,
#10960000
0<
14
11
#10970000
04
#10980000
14
#10990000
04
#11000000
1<
14
01
#11010000
04
#11020000
0P
0N
1M
1L
1G
b1101000001 6
14
b1101000001100 )
#11027000
0;
#11030000
1E
b1101010001 6
04
b1101010001101 )
1-
#11040000
0<
14
11
#11050000
04
#11060000
14
#11070000
04
#11080000
1<
14
01
#11090000
04
#11100000
14
#11110000
04
1,
#11120000
0<
14
11
#11130000
04
#11140000
14
#11150000
04
#11160000
1<
14
01
#11170000
04
#11180000
14
03
#11190000
04
#11200000
0<
14
11
0-
#11210000
04
#11220000
14
#11230000
04
#11240000
1<
14
01
0*
#11247000
0=
0!
17
#11250000
04
#11254000
08
#11260000
14
#11270000
04
#11280000
0<
14
11
0,
#11291250
04
#11302500
14
#11313750
04
#11325000
1<
14
01
#11335000
0C
#11336250
04
#11342000
09
#11347500
14
#11358750
04
#11360000
1-
#11370000
0<
14
11
0/
#11380000
0&
04
#11390000
14
#11400000
04
#11410000
1<
14
01
#11420000
04
#11430000
14
#11440000
04
1,
#11450000
0<
14
11
#11460000
04
#11470000
14
#11480000
04
#11490000
1<
14
01
#11500000
04
#11510000
14
#11520000
04
0-
#11530000
0<
14
11
#11540000
04
#11550000
14
#11560000
04
1*
#11567000
1=
1!
07
#11570000
1<
14
01
#11574000
18
#11577000
1C
1&
#11580000
04
1/
#11584000
19
#11590000
14
#11600000
04
b1101010001110 )
#11610000
0<
14
11
0,
#11620000
04
#11630000
14
#11640000
04
#11650000
1<
14
01
0*
#11657000
0=
0!
17
#11660000
04
#11664000
08
#11670000
14
#11680000
04
#11690000
0<
14
11
1-
#11700000
04
#11710000
14
#11720000
04
#11730000
1<
14
01
#11740000
0C
04
#11747000
09
#11750000
14
#11760000
04
#11770000
0<
14
11
1,
#11780000
0&
0/
#11781250
04
#11792500
14
#11803750
04
#11815000
1<
14
01
#11826250
04
#11837500
14
#11848750
04
#11850000
0-
#11860000
0<
14
11
#11870000
04
#11880000
14
#11890000
04
#11900000
1<
14
01
#11910000
04
#11920000
14
#11930000
04
0,
#11940000
0<
14
11
#11950000
04
#11960000
14
#11970000
04
1*
#11977000
1=
1!
07
